AHgen - Vignette 2, Link weighting
…
x The edge list or igraph to be weighted

y The edge list or igraph with the weights

type The format of the objects, either “edgelist” or “igraph”

The link names in the weighted object must match the object to be weighted. The weightings edge list or igraph may be of any length - see example below.

To illustrate we will read in the csv file weightExample from the inputs folder.

dw_edgelist <- read_csv("inputs/weightingExample.csv", col_types = cols())
dw_edgelist

## # A tibble: 62 x 4
##    layers    from                        to                            weightNew
##    <chr>     <chr>                       <chr>                             <dbl>
##  1 l1FP_l2V~ Cultural heritage and sens~ Collective identity and comm~      0.73
##  2 l1FP_l2V~ Cultural heritage and sens~ Environmental sustainability       0.7 
##  3 l1FP_l2V~ Cultural heritage and sens~ Integrated development and p~      0.75
##  4 l1FP_l2V~ Cultural heritage and sens~ Socio-economic equality and ~      0.04
##  5 l1FP_l2V~ Economic opportunity        Diverse livelihoods and empl~      0.54
##  6 l1FP_l2V~ Economic opportunity        Reliable communications and ~      0.97
##  7 l1FP_l2V~ Economic opportunity        Socio-economic equality and ~      1   
##  8 l1FP_l2V~ Economic opportunity        Sustainable economy                0.88
##  9 l1FP_l2V~ Globalised connectivity     Diverse livelihoods and empl~      0.84
## 10 l1FP_l2V~ Globalised connectivity     Effective leadership and man~      0.55
## # ... with 52 more rows
…
2.1 Edge list

weightLinks(x = de, y = dw_edgelist, type = "edgelist")

## # A tibble: 4,120 x 4
##    layers    from                         to                              weight
##    <chr>     <chr>                        <chr>                            <dbl>
##  1 l1FP_l2V~ Cultural heritage and sense~ Collective identity and commun~   0.73
##  2 l1FP_l2V~ Cultural heritage and sense~ Environmental sustainability      0.7 
##  3 l1FP_l2V~ Cultural heritage and sense~ Integrated development and pla~   0.75
##  4 l1FP_l2V~ Cultural heritage and sense~ Socio-economic equality and eq~   0.04
##  5 l1FP_l2V~ Economic opportunity         Diverse livelihoods and employ~   0.54
##  6 l1FP_l2V~ Economic opportunity         Reliable communications and mo~   0.97
##  7 l1FP_l2V~ Economic opportunity         Socio-economic equality and eq~   1   
##  8 l1FP_l2V~ Economic opportunity         Sustainable economy               0.88
##  9 l1FP_l2V~ Globalised connectivity      Diverse livelihoods and employ~   0.84
## 10 l1FP_l2V~ Globalised connectivity      Effective leadership and manag~   0.55
## # ... with 4,110 more rows
…
3. Indicators database

May need to provide a bit more background information. The indicators database provides location specific information, for a range of UK cities. These indicators are converted into weightings using the function read_indicatorsDatabase(). Input arguments are the database directory & name as well as the name of the city / location.

Located in the inputs folder (indicatorsDatabase_2020-05-22.xlsx), the indicators database is available in spreadsheet format for easy navigation. The spreadsheet may be adjusted, expanded or copied for use in AHgen.

Provide more information on how the weighting values are calculated

Get Melissa to confirm that the method of calculation is correct..

read_indicatorsDatabase("inputs/indicatorsDatabase_2020-05-22.xlsx", "Bristol")

## # A tibble: 22 x 4
##    layers     from                                  to                 weightNew
##    <chr>      <chr>                                 <chr>                  <dbl>
##  1 l2VPM_l3GF Collective identity and community su~ Communication sys~     0.872
##  2 l2VPM_l3GF Collective identity and community su~ Learning and educ~     0.956
##  3 l2VPM_l3GF Comprehensive security and rule of l~ Communication sys~     0.872
##  4 l2VPM_l3GF Diverse livelihoods and employment    Employment provis~     0.823
##  5 l2VPM_l3GF Diverse livelihoods and employment    Learning and educ~     0.956
##  6 l2VPM_l3GF Effective leadership and management   Communication sys~     0.872
##  7 l2VPM_l3GF Effective provision of critical serv~ Communication sys~     0.872
##  8 l2VPM_l3GF Effective safeguards to human health~ Public health          0.998
##  9 l2VPM_l3GF Empowered stakeholders                Communication sys~     0.872
## 10 l2VPM_l3GF Empowered stakeholders                Learning and educ~     0.956
## # ... with 12 more rows

read_indicatorsDatabase("inputs/indicatorsDatabase_2020-05-22.xlsx", "Edinburgh")

## # A tibble: 21 x 4
##    layers     from                                 to                  weightNew
##    <chr>      <chr>                                <chr>                   <dbl>
##  1 l2VPM_l3GF Collective identity and community s~ Communication syst~     0.884
##  2 l2VPM_l3GF Collective identity and community s~ Learning and educa~     0.968
##  3 l2VPM_l3GF Comprehensive security and rule of ~ Communication syst~     0.884
##  4 l2VPM_l3GF Diverse livelihoods and employment   Employment provisi~     0.805
##  5 l2VPM_l3GF Diverse livelihoods and employment   Learning and educa~     0.968
##  6 l2VPM_l3GF Effective leadership and management  Communication syst~     0.884
##  7 l2VPM_l3GF Effective provision of critical ser~ Communication syst~     0.884
##  8 l2VPM_l3GF Empowered stakeholders               Communication syst~     0.884
##  9 l2VPM_l3GF Empowered stakeholders               Learning and educa~     0.968
## 10 l2VPM_l3GF Environmental sustainability         Clean air               0.720
## # ... with 11 more rows

read_indicatorsDatabase("inputs/indicatorsDatabase_2020-05-22.xlsx", "Glasgow")

## # A tibble: 21 x 4
##    layers     from                                 to                  weightNew
##    <chr>      <chr>                                <chr>                   <dbl>
##  1 l2VPM_l3GF Collective identity and community s~ Communication syst~     0.689
##  2 l2VPM_l3GF Collective identity and community s~ Learning and educa~     0.896
##  3 l2VPM_l3GF Comprehensive security and rule of ~ Communication syst~     0.689
##  4 l2VPM_l3GF Diverse livelihoods and employment   Employment provisi~     0.754
##  5 l2VPM_l3GF Diverse livelihoods and employment   Learning and educa~     0.896
##  6 l2VPM_l3GF Effective leadership and management  Communication syst~     0.689
##  7 l2VPM_l3GF Effective provision of critical ser~ Communication syst~     0.689
##  8 l2VPM_l3GF Empowered stakeholders               Communication syst~     0.689
##  9 l2VPM_l3GF Empowered stakeholders               Learning and educa~     0.896
## 10 l2VPM_l3GF Environmental sustainability         Clean air               0.443
## # ... with 11 more rows

These weightings can then be applied to the generic template using weightLinks().

id <- read_indicatorsDatabase("inputs/indicatorsDatabase_2020-05-22.xlsx", "Edinburgh")

weightLinks(de, id, "edgelist")

## # A tibble: 4,120 x 4
##    layers    from                         to                              weight
##    <chr>     <chr>                        <chr>                            <dbl>
##  1 l1FP_l2V~ Cultural heritage and sense~ Collective identity and commun~      1
##  2 l1FP_l2V~ Cultural heritage and sense~ Environmental sustainability         1
##  3 l1FP_l2V~ Cultural heritage and sense~ Integrated development and pla~      1
##  4 l1FP_l2V~ Cultural heritage and sense~ Socio-economic equality and eq~      1
##  5 l1FP_l2V~ Economic opportunity         Diverse livelihoods and employ~      1
##  6 l1FP_l2V~ Economic opportunity         Reliable communications and mo~      1
##  7 l1FP_l2V~ Economic opportunity         Socio-economic equality and eq~      1
##  8 l1FP_l2V~ Economic opportunity         Sustainable economy                  1
##  9 l1FP_l2V~ Globalised connectivity      Diverse livelihoods and employ~      1
## 10 l1FP_l2V~ Globalised connectivity      Effective leadership and manag~      1
## # ... with 4,110 more rows

These indicator weightings can also be applied to the level of the abstraction hierarchy directly.

de_list$l2VPM_l3GF

## # A tibble: 141 x 4
##    layers    from                         to                              weight
##    <chr>     <chr>                        <chr>                            <dbl>
##  1 l2VPM_l3~ Collective identity and com~ Ceremonies and services for ma~      1
##  2 l2VPM_l3~ Collective identity and com~ Communication systems                1
##  3 l2VPM_l3~ Collective identity and com~ Community activities and engag~      1
##  4 l2VPM_l3~ Collective identity and com~ Foster social cohesion               1
##  5 l2VPM_l3~ Collective identity and com~ Historical and cultural value ~      1
##  6 l2VPM_l3~ Collective identity and com~ Learning and education               1
##  7 l2VPM_l3~ Collective identity and com~ Observance of religion               1
##  8 l2VPM_l3~ Collective identity and com~ Recreational activities              1
##  9 l2VPM_l3~ Collective identity and com~ Social interaction                   1
## 10 l2VPM_l3~ Collective identity and com~ Societal hazard regulation           1
## # ... with 131 more rows

de_list$l2VPM_l3GF <- weightLinks(de_list$l2VPM_l3GF, id, "edgelist")

de_list$l2VPM_l3GF

## # A tibble: 141 x 4
##    layers    from                         to                              weight
##    <chr>     <chr>                        <chr>                            <dbl>
##  1 l2VPM_l3~ Collective identity and com~ Ceremonies and services for ma~  1    
##  2 l2VPM_l3~ Collective identity and com~ Communication systems            0.884
##  3 l2VPM_l3~ Collective identity and com~ Community activities and engag~  1    
##  4 l2VPM_l3~ Collective identity and com~ Foster social cohesion           1    
##  5 l2VPM_l3~ Collective identity and com~ Historical and cultural value ~  1    
##  6 l2VPM_l3~ Collective identity and com~ Learning and education           0.968
##  7 l2VPM_l3~ Collective identity and com~ Observance of religion           1    
##  8 l2VPM_l3~ Collective identity and com~ Recreational activities          1    
##  9 l2VPM_l3~ Collective identity and com~ Social interaction               1    
## 10 l2VPM_l3~ Collective identity and com~ Societal hazard regulation       1    
## # ... with 131 more rows
…
