AHgen - Vignette 3, Analysis
…
1. Introduction

Explain what type of analysis is done for abstraction hierarchy. Explain centralities (as a minimum).

2. Metrics

2.1 Betweenness centrality

AHgen has two functions for calculating the unweighted and weighted betweenness centralities, calcUWVBC() and calcWVBC() respectively. There are two input arguments, an igraph and the node information (saved as dn in part 1).

Calculating the weighted vertex betweenness centrality requires the packages tnet and survival to be installed; install.packages(c("tnet", "survival")).

calcUWVBC(dw_weighted, dn)

## # A tibble: 475 x 4
##    layer layerName                 nodeName                                UWVBC
##    <dbl> <chr>                     <chr>                                   <dbl>
##  1     1 Functional purposes       Cultural heritage and sense of place     87.0
##  2     1 Functional purposes       Economic opportunity                      0  
##  3     1 Functional purposes       Globalised connectivity                   0  
##  4     1 Functional purposes       Knowledge transfer and diffusion of i~   14.5
##  5     1 Functional purposes       Physical settlement                     608. 
##  6     1 Functional purposes       Pooling of resources                    162. 
##  7     1 Functional purposes       Safety and security                     226  
##  8     1 Functional purposes       Social opportunity and care             298  
##  9     1 Functional purposes       Wellbeing                               866. 
## 10     2 Values and priority meas~ Collective identity and community sup~ 1192. 
## # ... with 465 more rows

calcWVBC(dw_weighted, dn)

## Loading required package: tnet

## Loading required package: survival

## tnet: Analysis of Weighted, Two-mode, and Longitudinal networks.
## Type ?tnet for help.

## # A tibble: 475 x 4
##    layer layerName                 nodeName                                 WVBC
##    <dbl> <chr>                     <chr>                                   <dbl>
##  1     1 Functional purposes       Cultural heritage and sense of place       2 
##  2     1 Functional purposes       Economic opportunity                       0 
##  3     1 Functional purposes       Globalised connectivity                    0 
##  4     1 Functional purposes       Knowledge transfer and diffusion of in~    0 
##  5     1 Functional purposes       Physical settlement                        0 
##  6     1 Functional purposes       Pooling of resources                       0 
##  7     1 Functional purposes       Safety and security                        2 
##  8     1 Functional purposes       Social opportunity and care                0 
##  9     1 Functional purposes       Wellbeing                                  0 
## 10     2 Values and priority meas~ Collective identity and community supp~ 1183.
## # ... with 465 more rows

2.2 Calculate multiple metrics

Multiple metrics can be calculated at the same time using the function calcMetrics(). The additional input argument is a vector of the names of the metrics to be calculated. Only functions which are described in calcMetrics() can be called; currently AHgen includes the unweighted and weighted vertex betweenness centralities only.

calcMetrics(dw_weighted, dn, c("UWVBC", "WVBC"))

## # A tibble: 475 x 5
##    layer layerName               nodeName                            UWVBC  WVBC
##    <dbl> <chr>                   <chr>                               <dbl> <dbl>
##  1     1 Functional purposes     Cultural heritage and sense of pl~   87.0    2 
##  2     1 Functional purposes     Economic opportunity                  0      0 
##  3     1 Functional purposes     Globalised connectivity               0      0 
##  4     1 Functional purposes     Knowledge transfer and diffusion ~   14.5    0 
##  5     1 Functional purposes     Physical settlement                 608.     0 
##  6     1 Functional purposes     Pooling of resources                162.     0 
##  7     1 Functional purposes     Safety and security                 226      2 
##  8     1 Functional purposes     Social opportunity and care         298      0 
##  9     1 Functional purposes     Wellbeing                           866.     0 
## 10     2 Values and priority me~ Collective identity and community~ 1192.  1183.
## # ... with 465 more rows
…
The outputs from the igraph functions betweenness() and eigen_centrality() are the same format. Therefore we can create a function to calculate eigen centrality by changing three things in the code. If the new function’s name is in the form calcSuffix, then calcMetrics() will be able to call it.

calcEigen <- function(igraph, nodeInfo) { 
  
  require(igraph)
  
  igraph::eigen_centrality(igraph)$vector %>%
    function_igraphResultFormatting(name = "Closeness") %>%
    function_mergeNodeInfo(nodeInfo)
  
}

calcEigen(dw_weighted, dn)

## # A tibble: 475 x 4
##    layer layerName                nodeName                             Closeness
##    <dbl> <chr>                    <chr>                                    <dbl>
##  1     1 Functional purposes      Cultural heritage and sense of place  0.000750
##  2     1 Functional purposes      Economic opportunity                  0.00126 
##  3     1 Functional purposes      Globalised connectivity               0.00114 
##  4     1 Functional purposes      Knowledge transfer and diffusion of~  0.00117 
##  5     1 Functional purposes      Physical settlement                   0.00157 
##  6     1 Functional purposes      Pooling of resources                  0.000832
##  7     1 Functional purposes      Safety and security                   0.00160 
##  8     1 Functional purposes      Social opportunity and care           0.00169 
##  9     1 Functional purposes      Wellbeing                             0.00264 
## 10     2 Values and priority mea~ Collective identity and community s~  0.0134  
## # ... with 465 more rows

calcMetrics(dw_weighted, dn, c("WVBC", "Eigen", "UWVBC"))

## # A tibble: 475 x 6
##    layer layerName           nodeName                      WVBC Closeness  UWVBC
##    <dbl> <chr>               <chr>                        <dbl>     <dbl>  <dbl>
##  1     1 Functional purposes Cultural heritage and sense~    2   0.000750   87.0
##  2     1 Functional purposes Economic opportunity            0   0.00126     0  
##  3     1 Functional purposes Globalised connectivity         0   0.00114     0  
##  4     1 Functional purposes Knowledge transfer and diff~    0   0.00117    14.5
##  5     1 Functional purposes Physical settlement             0   0.00157   608. 
##  6     1 Functional purposes Pooling of resources            0   0.000832  162. 
##  7     1 Functional purposes Safety and security             2   0.00160   226  
##  8     1 Functional purposes Social opportunity and care     0   0.00169   298  
##  9     1 Functional purposes Wellbeing                       0   0.00264   866. 
## 10     2 Values and priorit~ Collective identity and com~ 1183.  0.0134   1192. 
## # ... with 465 more rows
…
2.4 Calculate change signal

To calculate the percent change from one igraph to another, for any given metric, we use the function calcChange(). There are three input arguments:

before The metric outputs from the initial igraph

after The metric outputs from the modified or weighted igraph

metric The column name of the metric for which change is to be calculated

calcChange(before = calcWVBC(di,dn), 
           after = calcWVBC(dw_weighted, dn), 
           metric = "WVBC")

## # A tibble: 475 x 7
##    layer layerName     nodeName         before after absChange_afterM~ pctChange
##    <dbl> <chr>         <chr>             <dbl> <dbl>             <dbl>     <dbl>
##  1     1 Functional p~ Cultural herita~   19.1    2              -17.1    -89.5 
##  2     1 Functional p~ Economic opport~   20.2    0              -20.2   -100   
##  3     1 Functional p~ Globalised conn~   48.2    0              -48.2   -100   
##  4     1 Functional p~ Knowledge trans~   42.9    0              -42.9   -100   
##  5     1 Functional p~ Physical settle~   58.1    0              -58.1   -100   
##  6     1 Functional p~ Pooling of reso~   40.9    0              -40.9   -100   
##  7     1 Functional p~ Safety and secu~   74.3    2              -72.3    -97.3 
##  8     1 Functional p~ Social opportun~   65.4    0              -65.4   -100   
##  9     1 Functional p~ Wellbeing         288.     0             -288.    -100   
## 10     2 Values and p~ Collective iden~ 1210.  1183.             -27.1     -2.24
## # ... with 465 more rows
…
