AHgen - Vignette 1, Getting started
…
5. Conversion to edge list and igraph

Weighting and analysis in AHgen requires an edge list or igraph. Descriptions for edge list and igraph with forward links.

5.1 Adjacency matrix to edge list

To convert the adjacency matrix into an edge list use the function adjMat_to_edgelist(). There are two input arguments: the adjacency matrix and whether the output should be a list of the levels of the abstraction hierarchy (TRUE or FALSE).

de <- da %>% adjMat_to_edgelist
de

## # A tibble: 4,120 x 4
##    layers    from                         to                              weight
##    <chr>     <chr>                        <chr>                            <dbl>
##  1 l1FP_l2V~ Cultural heritage and sense~ Collective identity and commun~      1
##  2 l1FP_l2V~ Cultural heritage and sense~ Environmental sustainability         1
##  3 l1FP_l2V~ Cultural heritage and sense~ Integrated development and pla~      1
##  4 l1FP_l2V~ Cultural heritage and sense~ Socio-economic equality and eq~      1
##  5 l1FP_l2V~ Economic opportunity         Diverse livelihoods and employ~      1
##  6 l1FP_l2V~ Economic opportunity         Reliable communications and mo~      1
##  7 l1FP_l2V~ Economic opportunity         Socio-economic equality and eq~      1
##  8 l1FP_l2V~ Economic opportunity         Sustainable economy                  1
##  9 l1FP_l2V~ Globalised connectivity      Diverse livelihoods and employ~      1
## 10 l1FP_l2V~ Globalised connectivity      Effective leadership and manag~      1
## # ... with 4,110 more rows

de_list <- da %>% adjMat_to_edgelist(outputList = TRUE)
de_list

## $l1FP_l2VPM
## # A tibble: 62 x 4
##    layers    from                         to                              weight
##    <chr>     <chr>                        <chr>                            <dbl>
##  1 l1FP_l2V~ Cultural heritage and sense~ Collective identity and commun~      1
##  2 l1FP_l2V~ Cultural heritage and sense~ Environmental sustainability         1
##  3 l1FP_l2V~ Cultural heritage and sense~ Integrated development and pla~      1
##  4 l1FP_l2V~ Cultural heritage and sense~ Socio-economic equality and eq~      1
##  5 l1FP_l2V~ Economic opportunity         Diverse livelihoods and employ~      1
##  6 l1FP_l2V~ Economic opportunity         Reliable communications and mo~      1
##  7 l1FP_l2V~ Economic opportunity         Socio-economic equality and eq~      1
##  8 l1FP_l2V~ Economic opportunity         Sustainable economy                  1
##  9 l1FP_l2V~ Globalised connectivity      Diverse livelihoods and employ~      1
## 10 l1FP_l2V~ Globalised connectivity      Effective leadership and manag~      1
## # ... with 52 more rows
## 
## $l2VPM_l3GF
## # A tibble: 141 x 4
##    layers    from                         to                              weight
##    <chr>     <chr>                        <chr>                            <dbl>
##  1 l2VPM_l3~ Collective identity and com~ Ceremonies and services for ma~      1
##  2 l2VPM_l3~ Collective identity and com~ Communication systems                1
##  3 l2VPM_l3~ Collective identity and com~ Community activities and engag~      1
##  4 l2VPM_l3~ Collective identity and com~ Foster social cohesion               1
##  5 l2VPM_l3~ Collective identity and com~ Historical and cultural value ~      1
##  6 l2VPM_l3~ Collective identity and com~ Learning and education               1
##  7 l2VPM_l3~ Collective identity and com~ Observance of religion               1
##  8 l2VPM_l3~ Collective identity and com~ Recreational activities              1
##  9 l2VPM_l3~ Collective identity and com~ Social interaction                   1
## 10 l2VPM_l3~ Collective identity and com~ Societal hazard regulation           1
## # ... with 131 more rows
## 
## $l3GF_l4ORP
## # A tibble: 694 x 4
##    layers     from           to                                 weight
##    <chr>      <chr>          <chr>                               <dbl>
##  1 l3GF_l4ORP Animal welfare Administrate retail activity            1
##  2 l3GF_l4ORP Animal welfare Animal rescue                           1
##  3 l3GF_l4ORP Animal welfare Criminal investigation                  1
##  4 l3GF_l4ORP Animal welfare Enforce environmental standards         1
##  5 l3GF_l4ORP Animal welfare Houses animals                          1
##  6 l3GF_l4ORP Animal welfare Manage pests                            1
##  7 l3GF_l4ORP Animal welfare Manufacture consumer discretionary      1
##  8 l3GF_l4ORP Animal welfare Manufacture consumer staples            1
##  9 l3GF_l4ORP Animal welfare Monitor environment                     1
## 10 l3GF_l4ORP Animal welfare Provide animal healthcare               1
## # ... with 684 more rows
## 
## $l4ORP_l5PO
## # A tibble: 3,223 x 4
##    layers     from                              to                        weight
##    <chr>      <chr>                             <chr>                      <dbl>
##  1 l4ORP_l5PO Accommodates prisoners            Prison and jails               1
##  2 l4ORP_l5PO Act as access point for electric~ Accountancy firms              1
##  3 l4ORP_l5PO Act as access point for electric~ Advertising                    1
##  4 l4ORP_l5PO Act as access point for electric~ Agriculture and aquacult~      1
##  5 l4ORP_l5PO Act as access point for electric~ Air bases                      1
##  6 l4ORP_l5PO Act as access point for electric~ Airports (major)               1
##  7 l4ORP_l5PO Act as access point for electric~ Airports (minor)               1
##  8 l4ORP_l5PO Act as access point for electric~ Ambulance stations             1
##  9 l4ORP_l5PO Act as access point for electric~ Animal care                    1
## 10 l4ORP_l5PO Act as access point for electric~ Animal shelters                1
## # ... with 3,213 more rows

The edge list is in a tibble format, it can be navigated and edited like any data.frame or tibble in R.

de$layers %>% unique # Unique layer names

## [1] "l1FP_l2VPM" "l2VPM_l3GF" "l3GF_l4ORP" "l4ORP_l5PO"

de %>% filter(layers == "l1FP_l2VPM") # Filter layers

## # A tibble: 62 x 4
##    layers    from                         to                              weight
##    <chr>     <chr>                        <chr>                            <dbl>
##  1 l1FP_l2V~ Cultural heritage and sense~ Collective identity and commun~      1
##  2 l1FP_l2V~ Cultural heritage and sense~ Environmental sustainability         1
##  3 l1FP_l2V~ Cultural heritage and sense~ Integrated development and pla~      1
##  4 l1FP_l2V~ Cultural heritage and sense~ Socio-economic equality and eq~      1
##  5 l1FP_l2V~ Economic opportunity         Diverse livelihoods and employ~      1
##  6 l1FP_l2V~ Economic opportunity         Reliable communications and mo~      1
##  7 l1FP_l2V~ Economic opportunity         Socio-economic equality and eq~      1
##  8 l1FP_l2V~ Economic opportunity         Sustainable economy                  1
##  9 l1FP_l2V~ Globalised connectivity      Diverse livelihoods and employ~      1
## 10 l1FP_l2V~ Globalised connectivity      Effective leadership and manag~      1
## # ... with 52 more rows
…
de %>% filter_all(any_vars(str_detect(str_to_lower(.), "subway")))

## # A tibble: 23 x 4
##    layers     from                                        to              weight
##    <chr>      <chr>                                       <chr>            <dbl>
##  1 l4ORP_l5PO Act as access point for electricity         Subway stations      1
##  2 l4ORP_l5PO Act as access point for food                Subway stations      1
##  3 l4ORP_l5PO Act as access point for gas                 Subway stations      1
##  4 l4ORP_l5PO Act as access point for potable water       Subway stations      1
##  5 l4ORP_l5PO Act as access point for public transport    Subway stations      1
##  6 l4ORP_l5PO Act as access point for sanitation          Subway stations      1
##  7 l4ORP_l5PO Act as access point for telecommunication   Subway stations      1
##  8 l4ORP_l5PO Act as access point for traffic information Subway stations      1
##  9 l4ORP_l5PO Act as access point to cash                 Subway stations      1
## 10 l4ORP_l5PO Act as mode of transport                    Subway trains        1
## # ... with 13 more rows

de %>% filter(weight != 1) # None, all are equal weight in generic template

## # A tibble: 0 x 4
## # ... with 4 variables: layers <chr>, from <chr>, to <chr>, weight <dbl>

Would the filter piece of code be useful as a function for AHgen?

Use the tidyverse function bind_rows() to collapse the list of edge lists.

de_list %>% bind_rows()

## # A tibble: 4,120 x 4
##    layers    from                         to                              weight
##    <chr>     <chr>                        <chr>                            <dbl>
##  1 l1FP_l2V~ Cultural heritage and sense~ Collective identity and commun~      1
##  2 l1FP_l2V~ Cultural heritage and sense~ Environmental sustainability         1
##  3 l1FP_l2V~ Cultural heritage and sense~ Integrated development and pla~      1
##  4 l1FP_l2V~ Cultural heritage and sense~ Socio-economic equality and eq~      1
##  5 l1FP_l2V~ Economic opportunity         Diverse livelihoods and employ~      1
##  6 l1FP_l2V~ Economic opportunity         Reliable communications and mo~      1
##  7 l1FP_l2V~ Economic opportunity         Socio-economic equality and eq~      1
##  8 l1FP_l2V~ Economic opportunity         Sustainable economy                  1
##  9 l1FP_l2V~ Globalised connectivity      Diverse livelihoods and employ~      1
## 10 l1FP_l2V~ Globalised connectivity      Effective leadership and manag~      1
## # ... with 4,110 more rows
…
